Determinants of borehole’ functionality in Northen Malawi
…
borehole_malawi_small |>
  group_by(village_name) |> #selected
  summarise(bh_use_num) 

Warning: Returning more (or less) than 1 row per `summarise()` group was deprecated in
dplyr 1.1.0.
ℹ Please use `reframe()` instead.
ℹ When switching from `summarise()` to `reframe()`, remember that `reframe()`
  always returns an ungrouped data frame and adjust accordingly.

`summarise()` has grouped output by 'village_name'. You can override using the
`.groups` argument.

# A tibble: 108 × 2
# Groups:   village_name [32]
   village_name bh_use_num
   <chr>             <dbl>
 1 Bonje                10
 2 Bonje                27
 3 Bonje                34
 4 Bonje                50
 5 Bonje                28
 6 Bonje                21
 7 Bonje                28
 8 Bonje                29
 9 Bonje              1125
10 Bonje                18
# ℹ 98 more rows
…
